{
  "success": true,
  "message": "成功",
  "code": "200",
  "data": {
    "list": [{
      "p_id": "U0000000023",
      "p_username": "zhangxs",
      "p_workernumber": "8",
      "p_password": null,
      "p_nickname": "仉雪松",
      "p_phone": "13213",
      "p_email": null,
      "p_online": null,
      "p_enable": null,
      "p_frozen": 0,
      "p_companyid": "PLGSH",
      "p_organizationid": "ORG0000000052",
      "p_companyname": "华东仓",
      "p_orgname": "制造业产品设计",
      "p_createtime": null,
      "p_createname": "OA管理员",
      "p_modifietime": "2019-01-29 14:32:00",
      "p_modifiename": null,
      "p_lastlogindate": null,
      "p_lastmodipassdate": null,
      "p_validdate": null,
      "branchids": null,
      "consignors": null,
      "companyids": null,
      "shipvendorids": null,
      "shopnos": null
    }, {
      "p_id": "U0000000024",
      "p_username": "longxl",
      "p_workernumber": "9",
      "p_password": null,
      "p_nickname": "龙小亮",
      "p_phone": "4231",
      "p_email": "164125283@qq.com",
      "p_online": null,
      "p_enable": null,
      "p_frozen": 0,
      "p_companyid": null,
      "p_organizationid": "ORG0000000052",
      "p_companyname": null,
      "p_orgname": "制造业产品设计",
      "p_createtime": null,
      "p_createname": "OA管理员",
      "p_modifietime": "2019-01-12 10:56:56",
      "p_modifiename": null,
      "p_lastlogindate": null,
      "p_lastmodipassdate": null,
      "p_validdate": null,
      "branchids": null,
      "consignors": null,
      "companyids": null,
      "shipvendorids": null,
      "shopnos": null
    }, {
      "p_id": "U0000000142",
      "p_username": "jwl",
      "p_workernumber": "124",
      "p_password": null,
      "p_nickname": "姜文亮",
      "p_phone": null,
      "p_email": null,
      "p_online": null,
      "p_enable": null,
      "p_frozen": 0,
      "p_companyid": null,
      "p_organizationid": null,
      "p_companyname": null,
      "p_orgname": null,
      "p_createtime": "2017-01-12 15:43:33",
      "p_createname": null,
      "p_modifietime": null,
      "p_modifiename": null,
      "p_lastlogindate": null,
      "p_lastmodipassdate": null,
      "p_validdate": null,
      "branchids": null,
      "consignors": null,
      "companyids": null,
      "shipvendorids": null,
      "shopnos": null
    }, {
      "p_id": "U0000000143",
      "p_username": "jiangf",
      "p_workernumber": "125",
      "p_password": null,
      "p_nickname": "江凡",
      "p_phone": null,
      "p_email": null,
      "p_online": null,
      "p_enable": null,
      "p_frozen": 0,
      "p_companyid": null,
      "p_organizationid": null,
      "p_companyname": null,
      "p_orgname": null,
      "p_createtime": "2017-01-12 15:46:28",
      "p_createname": null,
      "p_modifietime": null,
      "p_modifiename": null,
      "p_lastlogindate": null,
      "p_lastmodipassdate": null,
      "p_validdate": null,
      "branchids": null,
      "consignors": null,
      "companyids": null,
      "shipvendorids": null,
      "shopnos": null
    }, {
      "p_id": "U0000000144",
      "p_username": "jiangcl",
      "p_workernumber": "126",
      "p_password": null,
      "p_nickname": "蒋成龙",
      "p_phone": null,
      "p_email": null,
      "p_online": null,
      "p_enable": null,
      "p_frozen": 0,
      "p_companyid": null,
      "p_organizationid": "ORG0000000046",
      "p_companyname": null,
      "p_orgname": "自动化",
      "p_createtime": "2017-11-08 13:39:55",
      "p_createname": null,
      "p_modifietime": null,
      "p_modifiename": null,
      "p_lastlogindate": null,
      "p_lastmodipassdate": null,
      "p_validdate": null,
      "branchids": null,
      "consignors": null,
      "companyids": null,
      "shipvendorids": null,
      "shopnos": null
    }],
    "totalCount": 423,
    "pageCount": 85,
    "pageNum": 1,
    "pageSize": 5,
    "startRow": 0,
    "endRow": 5
  }
}